\relax 
\providecommand\hyper@newdestlabel[2]{}
\@setckpt{math_style}{
\setcounter{page}{1}
\setcounter{equation}{0}
\setcounter{enumi}{0}
\setcounter{enumii}{0}
\setcounter{enumiii}{0}
\setcounter{enumiv}{0}
\setcounter{footnote}{0}
\setcounter{mpfootnote}{0}
\setcounter{part}{0}
\setcounter{chapter}{0}
\setcounter{section}{0}
\setcounter{subsection}{0}
\setcounter{subsubsection}{0}
\setcounter{paragraph}{0}
\setcounter{subparagraph}{0}
\setcounter{figure}{0}
\setcounter{table}{0}
\setcounter{parentequation}{0}
\setcounter{Maxaffil}{2}
\setcounter{authors}{0}
\setcounter{affil}{0}
\setcounter{Item}{0}
\setcounter{Hfootnote}{0}
\setcounter{bookmark@seq@number}{0}
\setcounter{satz}{0}
\setcounter{thm}{0}
\setcounter{lemma}{0}
\setcounter{corollar}{0}
\setcounter{proposition}{0}
\setcounter{defi}{0}
\setcounter{axiom}{0}
\setcounter{bsp}{0}
\setcounter{bem}{0}
\setcounter{folg}{0}
}
