\relax 
\providecommand\hyper@newdestlabel[2]{}
\@setckpt{bettina_related/TreeBoundaryConditions}{
\setcounter{page}{10}
\setcounter{equation}{45}
\setcounter{enumi}{0}
\setcounter{enumii}{0}
\setcounter{enumiii}{0}
\setcounter{enumiv}{0}
\setcounter{footnote}{0}
\setcounter{mpfootnote}{0}
\setcounter{part}{0}
\setcounter{chapter}{1}
\setcounter{section}{3}
\setcounter{subsection}{2}
\setcounter{subsubsection}{0}
\setcounter{paragraph}{0}
\setcounter{subparagraph}{0}
\setcounter{figure}{0}
\setcounter{table}{0}
\setcounter{parentequation}{0}
\setcounter{Maxaffil}{0}
\setcounter{authors}{6}
\setcounter{affil}{1}
\setcounter{Item}{0}
\setcounter{Hfootnote}{0}
\setcounter{bookmark@seq@number}{14}
\setcounter{satz}{0}
\setcounter{thm}{0}
\setcounter{lemma}{0}
\setcounter{corollar}{0}
\setcounter{proposition}{0}
\setcounter{defi}{0}
\setcounter{axiom}{0}
\setcounter{bsp}{0}
\setcounter{bem}{0}
\setcounter{folg}{0}
\setcounter{section@level}{2}
\setcounter{Einschub}{1}
}
